<?xml version="1.0" encoding="UTF-8"?>
<svg width="14px" height="8px" viewBox="0 0 14 8" version="1.1" xmlns="http://www.w3.org/2000/svg" xmlns:xlink="http://www.w3.org/1999/xlink">
    <!-- Generator: Sketch 62 (91390) - https://sketch.com -->
    <title>chevron_down_black@1,5x</title>
    <desc>Created with Sketch.</desc>
    <g id="Page-1" stroke="none" stroke-width="1" fill="none" fill-rule="evenodd" opacity="1" stroke-linecap="round" stroke-linejoin="round">
        <g id="home" transform="translate(-609.000000, -4102.000000)" stroke="#ffffff80" stroke-width="2">
            <g id="chevron_down_black" transform="translate(610.000000, 4103.000000)">
                <polyline id="Path" points="0 0 6 6 12 0"></polyline>
            </g>
        </g>
    </g>
</svg>