<?xml version="1.0" encoding="UTF-8"?>
<svg width="20px" height="20px" viewBox="0 0 20 20" version="1.1" xmlns="http://www.w3.org/2000/svg" xmlns:xlink="http://www.w3.org/1999/xlink">
    <!-- Generator: Sketch 62 (91390) - https://sketch.com -->
    <title>grid_active@1,5x</title>
    <desc>Created with Sketch.</desc>
    <g id="Page-1" stroke="none" stroke-width="1" fill="none" fill-rule="evenodd" stroke-linecap="round" stroke-linejoin="round">
        <g id="Projetos-Grid" transform="translate(-1301.000000, -333.000000)" stroke="#000000" stroke-width="2">
            <g id="grid_active" transform="translate(1302.000000, 334.000000)">
                <rect id="Rectangle" x="0" y="0" width="7" height="7"></rect>
                <rect id="Rectangle" x="11" y="0" width="7" height="7"></rect>
                <rect id="Rectangle" x="11" y="11" width="7" height="7"></rect>
                <rect id="Rectangle" x="0" y="11" width="7" height="7"></rect>
            </g>
        </g>
    </g>
</svg>